<svg
  xmlns="http://www.w3.org/2000/svg" viewBox="0 0 115.19479 115.9107">
  <g id="background">
    <circle cx="57.59739" cy="57.95535" r="57.5" fill="#e6e6e6"/>
    <circle cx="54.44919" cy="12.08341" r="8.72521" fill="#f2f2f2"/>
    <circle cx="60.2399" cy="35.1284" r="8.72521" fill="#f2f2f2"/>
    <circle cx="16.59151" cy="36.4032" r="8.72521" fill="#f2f2f2"/>
    <circle cx="32.98415" cy="19.80862" r="8.72521" fill="#f2f2f2"/>
    <circle cx="11.99331" cy="60.0285" r="8.72521" fill="#f2f2f2"/>
    <circle cx="36.72398" cy="68.6308" r="8.72521" fill="#f2f2f2"/>
    <circle cx="37.44919" cy="45.00487" r="8.72521" fill="#f2f2f2"/>
    <circle cx="19.53374" cy="82.67447" r="8.72521" fill="#f2f2f2"/>
    <circle cx="36.59151" cy="98.2047" r="8.72521" fill="#f2f2f2"/>
    <circle cx="60.17439" cy="103.23356" r="8.72521" fill="#f2f2f2"/>
    <circle cx="82.44751" cy="96.42304" r="8.72521" fill="#f2f2f2"/>
    <circle cx="57.5147" cy="81.20029" r="8.72521" fill="#f2f2f2"/>
    <circle cx="78.61992" cy="70.6308" r="8.72521" fill="#f2f2f2"/>
    <circle cx="57.59739" cy="57.95535" r="8.72521" fill="#f2f2f2"/>
    <circle cx="98.74407" cy="80.03994" r="8.72521" fill="#f2f2f2"/>
    <circle cx="103.46927" cy="57.35693" r="8.72521" fill="#f2f2f2"/>
    <circle cx="81.03062" cy="48.16228" r="8.72521" fill="#f2f2f2"/>
    <circle cx="96.05397" cy="34.27966" r="8.72521" fill="#f2f2f2"/>
    <circle cx="78.30541" cy="18.07945" r="8.72521" fill="#f2f2f2"/>
  </g>
  <g id="bubble_1" data-name="bubble 1">
    <circle cx="46.13095" cy="29.46753" r="13.7163" fill="#ffb51e"/>
    <path d="M38.00928,32.25271a13.71375,13.71375,0,0,1,6.04315-16.42045,13.71635,13.71635,0,1,0,8.97243,25.40282A13.71375,13.71375,0,0,1,38.00928,32.25271Z" fill="#f7a726"/>
    <path d="M35.49724,27.67389h1.0332v1.75h2.00879v-1.75h1.03321v4.69238H38.53923V30.338H36.53044v2.02832h-1.0332Z" fill="#fff"/>
    <path d="M40.52751,27.67389H42.2697a3.45623,3.45623,0,0,1,.68946.0664,1.56822,1.56822,0,0,1,.56738.22852,1.153,1.153,0,0,1,.38379.4375,1.501,1.501,0,0,1,.14258.69238,1.58967,1.58967,0,0,1-.13282.68945,1.12925,1.12925,0,0,1-.36426.44434,1.48471,1.48471,0,0,1-.5498.23535,3.25956,3.25956,0,0,1-.68945.06934h-.75586v1.8291H40.52751Zm1.03321,1.98828h.68945a1.33953,1.33953,0,0,0,.26856-.02637.725.725,0,0,0,.23242-.08984.47314.47314,0,0,0,.165-.17188.54715.54715,0,0,0,.06347-.27539.4691.4691,0,0,0-.083-.28808.55445.55445,0,0,0-.21192-.16895.89974.89974,0,0,0-.28906-.07617,3.0142,3.0142,0,0,0-.30469-.0166h-.53027Z" fill="#fff"/>
    <path d="M44.45037,30.02057a2.65494,2.65494,0,0,1,.18847-1.02149,2.24206,2.24206,0,0,1,.52735-.77832,2.32362,2.32362,0,0,1,.80175-.49414,3.07808,3.07808,0,0,1,2.02832,0,2.34192,2.34192,0,0,1,.80176.49414,2.25316,2.25316,0,0,1,.52637.77832,2.84593,2.84593,0,0,1,0,2.042,2.2439,2.2439,0,0,1-.52637.77832,2.32706,2.32706,0,0,1-.80176.49415,3.07808,3.07808,0,0,1-2.02832,0,2.309,2.309,0,0,1-.80175-.49415,2.23289,2.23289,0,0,1-.52735-.77832A2.64982,2.64982,0,0,1,44.45037,30.02057Zm1.07324,0a1.72568,1.72568,0,0,0,.10254.60644,1.39448,1.39448,0,0,0,.29492.47656,1.35971,1.35971,0,0,0,.46094.31543,1.65678,1.65678,0,0,0,1.19922,0,1.34092,1.34092,0,0,0,.46093-.31543,1.39433,1.39433,0,0,0,.29492-.47656,1.83593,1.83593,0,0,0,0-1.21,1.384,1.384,0,0,0-.29492-.48047,1.33865,1.33865,0,0,0-.46093-.31445,1.64356,1.64356,0,0,0-1.19922,0,1.35738,1.35738,0,0,0-.46094.31445,1.38411,1.38411,0,0,0-.29492.48047A1.73261,1.73261,0,0,0,45.52361,30.02057Z" fill="#fff"/>
    <path d="M51.94548,31.42486H49.89763v-.835l1.915-2.916h1.08691v2.916h.60352v.835h-.60352v.94141h-.9541Zm0-2.45215h-.01367l-1.04,1.61719h1.05371Z" fill="#fff"/>
    <path d="M55.27947,27.55377h-.90625v-.44141h.90625Z" fill="#fff"/>
    <path d="M55.55193,27.6651l1.01269-.91016a1.99278,1.99278,0,0,0,.1543-.1582.30208.30208,0,0,0,.07715-.20606.25241.25241,0,0,0-.0957-.208.34853.34853,0,0,0-.22461-.0752.30713.30713,0,0,0-.24121.0957.38869.38869,0,0,0-.09766.23536l-.55176-.04a.89624.89624,0,0,1,.084-.35254.75484.75484,0,0,1,.19531-.248.828.828,0,0,1,.28515-.14941,1.22146,1.22146,0,0,1,.35547-.04981,1.07912,1.07912,0,0,1,.332.04981.78765.78765,0,0,1,.26856.14746.66972.66972,0,0,1,.17871.24511.84363.84363,0,0,1,.06445.3418.89681.89681,0,0,1-.02636.22656.77181.77181,0,0,1-.07129.18457.89553.89553,0,0,1-.1084.15235,1.80675,1.80675,0,0,1-.13672.13672l-.792.68066h1.15625v.48633H55.55193Z" fill="#fff"/>
  </g>
  <g id="bubble_2" data-name="bubble 2">
    <circle cx="30.36847" cy="71.25747" r="10.51261" fill="#ffb51e"/>
    <path d="M24.14376,73.39212A10.51067,10.51067,0,0,1,28.77543,60.807,10.51265,10.51265,0,1,0,35.65219,80.2765,10.51066,10.51066,0,0,1,24.14376,73.39212Z" fill="#f7a726"/>
    <path d="M24.33416,69.76861h1.44628a2.82326,2.82326,0,0,1,.57227.05567,1.2927,1.2927,0,0,1,.4707.18945.96227.96227,0,0,1,.31934.36328,1.25321,1.25321,0,0,1,.11816.5752,1.32416,1.32416,0,0,1-.11035.57129.93414.93414,0,0,1-.30273.36914,1.21438,1.21438,0,0,1-.45606.19531,2.71189,2.71189,0,0,1-.57226.05762h-.62793v1.51855h-.85742Zm.85742,1.65039h.57226a1.12068,1.12068,0,0,0,.22364-.02148.59355.59355,0,0,0,.19238-.07422.40485.40485,0,0,0,.13769-.14355.45606.45606,0,0,0,.05176-.22754A.38253.38253,0,0,0,26.301,70.713a.4568.4568,0,0,0-.17676-.14063.73783.73783,0,0,0-.23925-.06347c-.08789-.00879-.17188-.01367-.25293-.01367h-.44043Z" fill="#fff"/>
    <path d="M27.591,71.71686a2.19956,2.19956,0,0,1,.15625-.84766,1.85212,1.85212,0,0,1,.4375-.64649,1.93963,1.93963,0,0,1,.666-.41015,2.55628,2.55628,0,0,1,1.68359,0,1.93535,1.93535,0,0,1,.665.41015,1.85212,1.85212,0,0,1,.4375.64649,2.36093,2.36093,0,0,1,0,1.69434,1.85208,1.85208,0,0,1-.4375.64648,1.93552,1.93552,0,0,1-.665.41016,2.55645,2.55645,0,0,1-1.68359,0,1.9398,1.9398,0,0,1-.666-.41016,1.85208,1.85208,0,0,1-.4375-.64648A2.198,2.198,0,0,1,27.591,71.71686Zm.89063,0a1.4088,1.4088,0,0,0,.08593.50293,1.15166,1.15166,0,0,0,.24414.39648,1.11551,1.11551,0,0,0,.38282.26074,1.3672,1.3672,0,0,0,.99511,0,1.10627,1.10627,0,0,0,.38282-.26074,1.16879,1.16879,0,0,0,.24511-.39648,1.52528,1.52528,0,0,0,0-1.00391,1.14956,1.14956,0,0,0-.24511-.39844,1.10881,1.10881,0,0,0-.38282-.26172,1.3672,1.3672,0,0,0-.99511,0,1.11809,1.11809,0,0,0-.38282.26172,1.13315,1.13315,0,0,0-.24414.39844A1.42089,1.42089,0,0,0,28.48162,71.71686Z" fill="#fff"/>
    <path d="M33.81267,72.88287H32.11248v-.69336l1.58984-2.4209h.90234v2.4209h.501v.69336h-.501v.78125h-.792Zm0-2.03516h-.01074l-.86426,1.3418h.875Z" fill="#fff"/>
    <path d="M36.17888,69.65729h-.69433v-.33887h.69433Z" fill="#fff"/>
    <path d="M36.85857,68.97955h.13867a.89014.89014,0,0,0,.11524-.00781.32205.32205,0,0,0,.10351-.0332.18949.18949,0,0,0,.07422-.06739.20236.20236,0,0,0,.02832-.11426.18222.18222,0,0,0-.07227-.14941.26438.26438,0,0,0-.17578-.05957.253.253,0,0,0-.16406.05371.24525.24525,0,0,0-.084.13281l-.46582-.0957a.63584.63584,0,0,1,.10156-.22168.55439.55439,0,0,1,.16113-.14844.70715.70715,0,0,1,.207-.083,1.0672,1.0672,0,0,1,.24121-.02735,1.00435,1.00435,0,0,1,.25586.0332.63775.63775,0,0,1,.21582.10157.5047.5047,0,0,1,.14746.17285.52365.52365,0,0,1,.05567.249.467.467,0,0,1-.08789.28516.408.408,0,0,1-.25391.15234v.00781a.39435.39435,0,0,1,.15918.05372.43554.43554,0,0,1,.19043.24609.51809.51809,0,0,1,.02539.166.56273.56273,0,0,1-.05762.26269.53709.53709,0,0,1-.15527.1875.65649.65649,0,0,1-.22851.11133,1.03041,1.03041,0,0,1-.27833.03711.83991.83991,0,0,1-.46093-.124.60714.60714,0,0,1-.25586-.39257l.44629-.1045a.30138.30138,0,0,0,.09179.16895.29352.29352,0,0,0,.20411.0625.26576.26576,0,0,0,.20507-.07227.26248.26248,0,0,0,.06641-.18457.193.193,0,0,0-.127-.20019.39632.39632,0,0,0-.127-.02735c-.04687-.00293-.09472-.0039-.1416-.0039h-.09863Z" fill="#fff"/>
  </g>
  <g id="bubble_3" data-name="bubble 3">
    <circle cx="81.61201" cy="44.12673" r="9.03949" fill="#ffb51e"/>
    <path d="M76.25956,45.96225A9.03782,9.03782,0,0,1,80.2422,35.14063a9.03952,9.03952,0,1,0,5.91312,16.7413A9.03781,9.03781,0,0,1,76.25956,45.96225Z" fill="#f7a726"/>
    <path d="M74.60271,42.94342h.68164v1.15332h1.32324V42.94342h.68164v3.09277h-.68164V44.69928H75.28435v1.33691h-.68164Z" fill="#fff"/>
    <path d="M77.91814,42.94342h1.14844a2.25369,2.25369,0,0,1,.4541.04394,1.04167,1.04167,0,0,1,.374.15039.766.766,0,0,1,.25293.28907.98424.98424,0,0,1,.09375.456,1.04635,1.04635,0,0,1-.08691.4541.75715.75715,0,0,1-.24024.293.99123.99123,0,0,1-.3623.15527,2.14142,2.14142,0,0,1-.4541.0459h-.49805v1.20508h-.68164Zm.68164,1.31054h.4541a.875.875,0,0,0,.17676-.01757.49041.49041,0,0,0,.15332-.0586.3099.3099,0,0,0,.1084-.11328.35466.35466,0,0,0,.042-.18164.31223.31223,0,0,0-.05469-.19043.36485.36485,0,0,0-.13965-.11133.60638.60638,0,0,0-.19043-.0498c-.06933-.00684-.13671-.01074-.20019-.01074h-.34961Z" fill="#fff"/>
    <path d="M80.50408,44.49029a1.74624,1.74624,0,0,1,.125-.67285,1.478,1.478,0,0,1,.34668-.51367,1.55066,1.55066,0,0,1,.52832-.3252,2.02889,2.02889,0,0,1,1.33691,0,1.54152,1.54152,0,0,1,.52832.3252,1.48044,1.48044,0,0,1,.34766.51367,1.8846,1.8846,0,0,1,0,1.34473,1.48044,1.48044,0,0,1-.34766.51367,1.51233,1.51233,0,0,1-.52832.3252,2.01263,2.01263,0,0,1-1.33691,0,1.52111,1.52111,0,0,1-.52832-.3252,1.478,1.478,0,0,1-.34668-.51367A1.74127,1.74127,0,0,1,80.50408,44.49029Zm.708,0a1.13908,1.13908,0,0,0,.06739.39942.90253.90253,0,0,0,.19433.31445.87026.87026,0,0,0,.30371.207,1.08831,1.08831,0,0,0,.79,0,.87007.87007,0,0,0,.30371-.207.9024.9024,0,0,0,.19434-.31445,1.19534,1.19534,0,0,0,0-.79688.88083.88083,0,0,0-.49805-.52441,1.08831,1.08831,0,0,0-.79,0,.88077.88077,0,0,0-.498.52441A1.14361,1.14361,0,0,0,81.21208,44.49029Z" fill="#fff"/>
    <path d="M85.44353,45.41607H84.09392v-.55078l1.2627-1.92187h.71582v1.92187h.39746v.55078h-.39746v.62012h-.62891Zm0-1.61621h-.00879l-.68555,1.06543h.69434Z" fill="#fff"/>
    <path d="M87.63982,42.86432h-.59668v-.291h.59668Z" fill="#fff"/>
    <path d="M87.81951,42.93756l.667-.59961a1.03678,1.03678,0,0,0,.10156-.10449.198.198,0,0,0,.05176-.13575.16558.16558,0,0,0-.06348-.13671.23278.23278,0,0,0-.14843-.04981.20248.20248,0,0,0-.15821.0625.25914.25914,0,0,0-.06445.15625L87.841,42.1026a.59342.59342,0,0,1,.05567-.23145.48655.48655,0,0,1,.1289-.16406.5325.5325,0,0,1,.18848-.09766.77494.77494,0,0,1,.2334-.0332.69352.69352,0,0,1,.21875.0332.49247.49247,0,0,1,.17675.09668.43743.43743,0,0,1,.11817.16114.55682.55682,0,0,1,.042.22558.63.63,0,0,1-.0166.14942.52889.52889,0,0,1-.11914.22168.97544.97544,0,0,1-.08985.08984L88.256,43.003h.76172v.32031H87.81951Z" fill="#fff"/>
  </g>
  <g id="bubble_4" data-name="bubble 4">
    <circle cx="70.62815" cy="87.25942" r="13.68898" fill="#ffb51e"/>
    <path d="M62.52266,90.039a13.68641,13.68641,0,0,1,6.03111-16.38773,13.689,13.689,0,1,0,8.95456,25.35221A13.68642,13.68642,0,0,1,62.52266,90.039Z" fill="#f7a726"/>
    <path d="M62.77019,85.32135H64.655a3.707,3.707,0,0,1,.74414.07226,1.68068,1.68068,0,0,1,.61328.24707,1.2518,1.2518,0,0,1,.415.47266,1.61842,1.61842,0,0,1,.15429.74805,1.72112,1.72112,0,0,1-.14355.74511,1.21959,1.21959,0,0,1-.39356.48047,1.6,1.6,0,0,1-.59472.25391,3.44644,3.44644,0,0,1-.74512.07519h-.81641v1.97754H62.77019Zm1.11816,2.14941h.74512a1.49007,1.49007,0,0,0,.29-.02832.78473.78473,0,0,0,.25-.09668.52291.52291,0,0,0,.17969-.18652.59485.59485,0,0,0,.06738-.29785.50388.50388,0,0,0-.08887-.31153.604.604,0,0,0-.22949-.18261.975.975,0,0,0-.31152-.082,3.24487,3.24487,0,0,0-.33008-.01757h-.57227Z" fill="#fff"/>
    <path d="M67.0114,87.85748a2.87391,2.87391,0,0,1,.2041-1.10352,2.43349,2.43349,0,0,1,.57032-.84179A2.505,2.505,0,0,1,68.652,85.379a3.31445,3.31445,0,0,1,2.19238,0,2.51849,2.51849,0,0,1,.86719.53321,2.43126,2.43126,0,0,1,.56933.84179,3.08528,3.08528,0,0,1,0,2.207,2.42214,2.42214,0,0,1-.56933.84179,2.51849,2.51849,0,0,1-.86719.53321,3.31445,3.31445,0,0,1-2.19238,0,2.505,2.505,0,0,1-.86621-.53321,2.42435,2.42435,0,0,1-.57032-.84179A2.87391,2.87391,0,0,1,67.0114,87.85748Zm1.16113,0a1.853,1.853,0,0,0,.11133.65527,1.49674,1.49674,0,0,0,.31836.51661,1.4573,1.4573,0,0,0,.498.33984,1.78328,1.78328,0,0,0,1.29687,0,1.444,1.444,0,0,0,.49707-.33984,1.51377,1.51377,0,0,0,.31934-.51661,1.97259,1.97259,0,0,0,0-1.30664,1.49,1.49,0,0,0-.31934-.51953,1.44625,1.44625,0,0,0-.49707-.34082,1.78328,1.78328,0,0,0-1.29687,0,1.45139,1.45139,0,0,0-.81641.86035A1.86212,1.86212,0,0,0,68.17253,87.85748Z" fill="#fff"/>
    <path d="M75.11394,89.376H72.90007v-.90235l2.07032-3.15234h1.1748v3.15234h.65234V89.376h-.65234v1.01757H75.11394Zm0-2.6504h-.01465l-1.125,1.74805h1.13965Z" fill="#fff"/>
    <path d="M78.194,85.17584h-.9043v-.44141h.9043Z" fill="#fff"/>
    <path d="M79.07976,84.294h.17969a.94783.94783,0,0,0,.15039-.01171.403.403,0,0,0,.13476-.042.24626.24626,0,0,0,.09668-.08789.2636.2636,0,0,0,.03711-.14844.24225.24225,0,0,0-.09375-.19531.347.347,0,0,0-.22949-.07715.31971.31971,0,0,0-.21289.07032.312.312,0,0,0-.11035.17187l-.60645-.125a.84164.84164,0,0,1,.13184-.28808.74065.74065,0,0,1,.21-.19239.88732.88732,0,0,1,.26953-.1084,1.36741,1.36741,0,0,1,.31445-.03515,1.29143,1.29143,0,0,1,.333.042.81366.81366,0,0,1,.28125.13281.66251.66251,0,0,1,.19239.22559.68366.68366,0,0,1,.07226.32324.60539.60539,0,0,1-.11426.37109.52426.52426,0,0,1-.331.19825v.01172a.51422.51422,0,0,1,.208.06933.58058.58058,0,0,1,.15234.13574.60888.60888,0,0,1,.0957.1836.72863.72863,0,0,1,.03321.21679.74368.74368,0,0,1-.0752.3418.72855.72855,0,0,1-.20215.24512.87247.87247,0,0,1-.29785.14453,1.32517,1.32517,0,0,1-.3623.04785A1.09085,1.09085,0,0,1,78.736,85.753a.79058.79058,0,0,1-.333-.51074l.58106-.13672a.39578.39578,0,0,0,.11914.2207.39025.39025,0,0,0,.2666.08106.34585.34585,0,0,0,.2666-.09375.341.341,0,0,0,.08594-.24122.25307.25307,0,0,0-.165-.26074.511.511,0,0,0-.165-.03418q-.09228-.00585-.18457-.00586h-.12793Z" fill="#fff"/>
  </g>
</svg>
