<?xml version="1.0" encoding="UTF-8"?>
<svg width="8px" height="12px" viewBox="0 0 8 12" version="1.1" xmlns="http://www.w3.org/2000/svg" xmlns:xlink="http://www.w3.org/1999/xlink">
    <!-- Generator: Sketch 58 (84663) - https://sketch.com -->
    <title>icon-arrow-collapsed</title>
    <desc>Created with Sketch.</desc>
    <g id="Symbols" stroke="none" stroke-width="1" fill="none" fill-rule="evenodd">
        <g id="Transcript/Mobile/HP/Closed" transform="translate(-11.000000, -10.000000)" stroke="#FFFFFF" stroke-width="1.5">
            <polyline id="icon-arrow-collapsed" transform="translate(14.500000, 16.000000) rotate(-90.000000) translate(-14.500000, -16.000000) " points="10 13 14.5 19 19 13"></polyline>
        </g>
    </g>
</svg>