<svg data-name="logo-auryxia" xmlns="http://www.w3.org/2000/svg" width="149.362" height="60.133">
  <path d="M3.859 39.117l-1.055-.472C.472 41.033 0 42.227 0 46.391v5.997c0 4.136.472 5.358 2.804 7.746l1.055-.473c-1.943-2.498-2.36-3.442-2.36-7.246v-6.024c0-3.859.389-4.775 2.36-7.274m1.36 3.082v2.027h-.971v1.443h.971v13.299h1.583V45.669h1.832v-1.443H6.802v-2.083c0-.805.36-1.166 1.138-1.166h.805v-1.471h-.86c-1.805-.028-2.666.888-2.666 2.693zm8.107 1.888h-.39c-2.137 0-3.22 1.083-3.22 3.22v8.634c0 2.11 1.056 3.22 3.22 3.22h.39a2.877 2.877 0 0 0 3.22-3.22v-1.638H15.02v1.694a1.464 1.464 0 0 1-1.666 1.638h-.36a1.453 1.453 0 0 1-1.666-1.638v-3.748h5.219v-4.942c-.028-2.137-1.111-3.22-3.221-3.22zm1.61 6.635h-3.609v-3.498a1.472 1.472 0 0 1 1.666-1.666h.305a1.464 1.464 0 0 1 1.638 1.666zm5.247-4.997v-1.472h-1.554v14.742h1.554v-12.02a3.603 3.603 0 0 1 2.527-1.084v-1.776a2.797 2.797 0 0 0-2.527 1.61zm5.636 0v-1.472h-1.555v14.742h1.555v-12.02a3.603 3.603 0 0 1 2.526-1.084v-1.776a2.827 2.827 0 0 0-2.526 1.61zm4.164 13.242h1.582V44.227h-1.582zm-.028-16.49h1.638v-2.083h-1.638zm9.134 13.52a1.433 1.433 0 0 1-1.638 1.638h-.416a1.433 1.433 0 0 1-1.638-1.638v-8.745a1.464 1.464 0 0 1 1.638-1.666h.388a1.453 1.453 0 0 1 1.638 1.666v2.332h1.555v-2.332a2.808 2.808 0 0 0-3.165-3.165h-.471c-2.138 0-3.22 1.055-3.22 3.22v8.634a2.865 2.865 0 0 0 3.22 3.22h.472c2.11 0 3.193-1.11 3.193-3.22v-2.748H39.09zm12.188 0a1.433 1.433 0 0 1-1.638 1.638h-.417a1.433 1.433 0 0 1-1.638-1.638v-8.745a1.464 1.464 0 0 1 1.638-1.666h.389a1.453 1.453 0 0 1 1.638 1.666v2.332h1.555v-2.332a2.808 2.808 0 0 0-3.165-3.165h-.472c-2.138 0-3.22 1.055-3.22 3.22v8.634a2.865 2.865 0 0 0 3.22 3.22h.472c2.11 0 3.192-1.11 3.192-3.22v-2.748h-1.554zm3.748-13.52h1.638v-2.083h-1.638zm.027 16.49h1.583V44.227h-1.582zm6.053-17.184h-1.582v2.47h-1.055v1.444h1.055v13.298h1.582V45.697H62.8v-1.444h-1.694zm4.775 3.942v-1.472h-1.554v14.742h1.554v-12.02a3.603 3.603 0 0 1 2.526-1.084v-1.776a2.768 2.768 0 0 0-2.526 1.61zm7.08-1.638h-.223c-2.082 0-3.165 1.055-3.165 3.11v1.832H71.1v-1.916a1.41 1.41 0 0 1 1.61-1.555h.194a1.402 1.402 0 0 1 1.583 1.555v2.72l-2.915 1.056c-1.583.61-2.194 1.304-2.194 3.026v2.72a2.187 2.187 0 0 0 2.388 2.499h.056a4.171 4.171 0 0 0 2.665-1.138v1h1.554v-11.8c.028-2.054-1-3.11-3.081-3.11zm1.554 12.687a3.951 3.951 0 0 1-2.193.86h-.028c-.86 0-1.277-.416-1.277-1.304v-2.387a1.627 1.627 0 0 1 1.25-1.777l2.248-.861zm5.775-14.991h-1.582v2.47h-1.083v1.444h1.083v13.298h1.582V45.697h1.694v-1.444h-1.694zm6.441 2.304h-.389c-2.137 0-3.22 1.082-3.22 3.22v8.634a2.865 2.865 0 0 0 3.22 3.22h.389a2.877 2.877 0 0 0 3.22-3.22v-1.638h-1.526v1.694a1.464 1.464 0 0 1-1.666 1.637h-.333a1.453 1.453 0 0 1-1.666-1.638V52.25h5.22v-4.942a2.897 2.897 0 0 0-3.249-3.22zm1.61 6.635h-3.609v-3.498a1.472 1.472 0 0 1 1.666-1.666h.305a1.475 1.475 0 0 1 1.638 1.666zm2.471-11.605c1.943 2.499 2.36 3.443 2.36 7.246v6.025c0 3.831-.416 4.747-2.36 7.246l1.027.472c2.332-2.388 2.832-3.582 2.832-7.746v-5.997c0-4.136-.5-5.358-2.832-7.745zm11.688 2.666h-1.582v2.47h-1.083v1.444h1.083v13.298h1.582V45.697h1.694v-1.444h-1.694zm6.302 2.304h-.222c-2.082 0-3.165 1.055-3.165 3.11v1.831h1.527v-1.915a1.41 1.41 0 0 1 1.61-1.555h.194a1.39 1.39 0 0 1 1.583 1.555v2.72l-2.915 1.056c-1.583.61-2.193 1.304-2.193 3.026v2.72a2.187 2.187 0 0 0 2.387 2.499h.056a4.11 4.11 0 0 0 2.665-1.138v1h1.555v-11.8c.055-2.054-1-3.11-3.082-3.11zm1.583 12.687a3.951 3.951 0 0 1-2.194.86h-.027a1.15 1.15 0 0 1-1.305-1.304v-2.387a1.627 1.627 0 0 1 1.249-1.777l2.249-.861v5.47zm8.023-12.687h-.056a4.027 4.027 0 0 0-2.693 1.166v-5.775h-1.554v19.49h1.554v-1a3.949 3.949 0 0 0 2.693 1.138h.056a2.42 2.42 0 0 0 2.582-2.72v-9.634a2.377 2.377 0 0 0-2.582-2.665zm1.027 12.16c0 .971-.527 1.36-1.471 1.36h-.056a3.449 3.449 0 0 1-2.22-1.027V46.558a3.402 3.402 0 0 1 2.22-1h.056c.971 0 1.471.417 1.471 1.388zm3.804 2.72h1.582V39.478h-1.582zm7.412-14.88h-.389c-2.137 0-3.22 1.082-3.22 3.22v8.634a2.865 2.865 0 0 0 3.22 3.22h.389a2.877 2.877 0 0 0 3.22-3.22v-1.638h-1.527v1.694a1.464 1.464 0 0 1-1.666 1.637h-.333a1.453 1.453 0 0 1-1.666-1.638V52.25h5.22v-4.942a2.897 2.897 0 0 0-3.248-3.22zm1.638 6.635h-3.609v-3.498a1.472 1.472 0 0 1 1.666-1.666h.305a1.475 1.475 0 0 1 1.638 1.666zm5.663-8.94h-1.582v2.47h-1.055v1.445h1.055v13.298h1.583V45.697h1.693v-1.444h-1.694zm7.857 9.8l-2.498-1.527a1.755 1.755 0 0 1-.944-1.666v-1.332a1.354 1.354 0 0 1 1.554-1.499h.39c1.082 0 1.554.528 1.554 1.5v2.248h1.527v-2.138a2.735 2.735 0 0 0-3.082-3.081h-.389c-2.11 0-3.137 1.055-3.137 3.11v1.387a3.032 3.032 0 0 0 1.638 2.888l2.499 1.554a1.715 1.715 0 0 1 .944 1.638v1.5c0 .999-.5 1.47-1.527 1.47h-.472c-1.055 0-1.555-.5-1.555-1.47v-2.36h-1.527v2.248a2.766 2.766 0 0 0 3.11 3.082h.444a2.795 2.795 0 0 0 3.137-3.11V54.47a3.036 3.036 0 0 0-1.665-2.887zM90.617 6.247l7.135 10.466 1.776-2.582-5.358-7.857h-3.553m12.27 12.771l-1.776 2.582 5.358 7.857h3.526zm-36.646 16.38h3.526L89.673 6.247h-3.526z" fill="#5c6770"/>
  <path d="M56.052 8.301l-.083.083c-1.749 1.721-2.915 4.414-2.915 8.246v12.854h2.998V16.63c0-3.026.944-5.164 2.221-6.413a7.415 7.415 0 0 1 5.081-2h1.333V5.526H63.27A9.756 9.756 0 0 0 56.052 8.3m57.302-5.053h2.97V.278h-2.97zm0 26.264h2.97V6.247h-2.97zM47.085 19.1c0 3.026-.944 5.163-2.22 6.413a7.4 7.4 0 0 1-5.054 1.999 7.488 7.488 0 0 1-5.052-2c-1.278-1.249-2.221-3.386-2.221-6.412V6.247h-2.999V19.1c0 3.859 1.166 6.552 2.915 8.245l.084.083a9.608 9.608 0 0 0 7.218 2.777h.11a9.607 9.607 0 0 0 7.22-2.777l.082-.083c1.75-1.721 2.916-4.414 2.916-8.245V6.247h-2.999zm43.532 10.41h3.525l15.88-23.264h-3.525zM66.74 6.248l8.884 13.048 1.777-2.582-7.135-10.466zm69.017.027c-.194-.055-.36-.11-.555-.166a2.042 2.042 0 0 1-.388-.111 13.018 13.018 0 0 0-2.915-.361h-.195a12.23 12.23 0 1 0 0 24.459h.083a14.548 14.548 0 0 0 1.944-.14h.055c.111-.027.25-.027.361-.055.25-.055.5-.11.722-.166a11.897 11.897 0 0 0 6.163-3.748v3.581h2.97v-11.66a12.302 12.302 0 0 0-2.414-7.44 11.36 11.36 0 0 0-5.83-4.193zm-.055 20.295a1.702 1.702 0 0 1-.333.139c-.028 0-.056.027-.084.027a9.629 9.629 0 0 1-3.47.639 9.23 9.23 0 0 1-9.439-9.467 9.32 9.32 0 0 1 9.44-9.634 10.04 10.04 0 0 1 2.61.361 9.628 9.628 0 0 1 1.277 17.935zM13.187 0L0 29.484h3.526L8.218 18.99h13.437l4.692 10.494h3.525L16.685 0zM9.44 16.324L14.964 3.97l5.525 12.354zM149.362 8.079a2.166 2.166 0 1 1-2.165-2.11 2.122 2.122 0 0 1 2.165 2.11zm-3.692.028a1.528 1.528 0 1 0 3.054 0 1.535 1.535 0 0 0-1.527-1.583 1.519 1.519 0 0 0-1.527 1.583zm1.277.971h-.611V7.135a5.13 5.13 0 0 1 .86-.056 1.449 1.449 0 0 1 .778.14.501.501 0 0 1 .194.416c0 .194-.194.36-.444.444v.028a.651.651 0 0 1 .417.5c.083.277.11.388.138.472h-.666a1.213 1.213 0 0 1-.139-.417.314.314 0 0 0-.333-.305h-.194v.722zm0-1.11h.166c.222 0 .361-.083.361-.222 0-.166-.139-.25-.333-.25h-.194v.472z" fill="#f6851f"/>
</svg>